Agrp_Analysis
…
Extract genes from top loading PCs

pc1<-rownames(agrp@reductions$pca[order(agrp@reductions$pca[,1]),])[1:100]
pc4<-rownames(agrp@reductions$pca[order(-agrp@reductions$pca[,4]),])[1:100]
pc6<-rownames(agrp@reductions$pca[order(-agrp@reductions$pca[,6]),])[1:100]
imp_pcs<-data.frame(pc1=rownames(agrp@reductions$pca[order(agrp@reductions$pca[,1]),]), pc4=rownames(agrp@reductions$pca[order(-agrp@reductions$pca[,4]),]),pc6=rownames(agrp@reductions$pca[order(-agrp@reductions$pca[,6]),]))
write_csv(imp_pcs, path=here("output/agrp_pcgenes.csv"))

res_5<-as.data.frame(res_5)
res_5<-res_5[complete.cases(res_5),]
res_5[order(res_5$pvalue),] %>% add_rownames("gene") %>% filter(baseMean>100)

Warning: Deprecated, use tibble::rownames_to_column() instead.

# A tibble: 92 x 7
   gene    baseMean log2FoldChange lfcSE  stat   pvalue  padj
   <chr>      <dbl>          <dbl> <dbl> <dbl>    <dbl> <dbl>
 1 Cntn5       173.          1.74  0.487  3.57 0.000354 0.883
 2 Mylip       233.         -1.47  0.527 -2.79 0.00523  1.000
 3 Pcdh15      147.          1.06  0.383  2.77 0.00563  1.000
 4 Nlgn1       181.          0.850 0.349  2.44 0.0148   1.000
 5 Pcdh7       194.          0.925 0.400  2.31 0.0208   1.000
 6 Galntl6     142.          0.912 0.408  2.24 0.0254   1.000
 7 Nrg1        157.          0.773 0.375  2.06 0.0392   1.000
 8 Lrrtm4      167.          0.860 0.449  1.92 0.0554   1.000
 9 Npy        1264.         -1.33  0.716 -1.85 0.0643   1.000
10 Syt1        103.          0.761 0.421  1.81 0.0708   1.000
# … with 82 more rows
…
